[gd_scene load_steps=2 format=2]

[ext_resource path="res://scripts/DebugOverlay.gd" type="Script" id=1]

[node name="DebugOverlay" type="CanvasLayer"]
script = ExtResource( 1 )
render_info_label_path = NodePath("TopLeftOverlay/RenderInfoLabel")

[node name="TopLeftOverlay" type="VBoxContainer" parent="."]
margin_left = 8.0
margin_top = 8.0
margin_right = 711.0
margin_bottom = 414.0
size_flags_horizontal = 3
size_flags_vertical = 3
__meta__ = {
"_edit_use_anchors_": false
}

[node name="RenderInfoLabel" type="RichTextLabel" parent="TopLeftOverlay"]
margin_right = 703.0
margin_bottom = 406.0
size_flags_horizontal = 3
size_flags_vertical = 3
bbcode_enabled = true
bbcode_text = "[code]debug overlay text[/code]"
text = "debug overlay text"
scroll_active = false
